%YAML 1.1
%TAG !u! tag:unity3d.com,2011:
--- !u!78 &1
TagManager:
  serializedVersion: 2
  tags:
  - ShowOnPause
  - gameArea
  - ShowOnGameOver
  - ShowOnGameComplete
  - ShowOnLifeEmpty
  - ShowOnSelectDifficulty
  - ShowOnSetting
  layers:
  - Default
  - TransparentFX
  - Ignore Raycast
  - 
  - Water
  - UI
  - 
  - 
  - Pause
  - 
  - 
  - 
  - 
  - 
  - 
  - 
  - 
  - 
  - 
  - 
  - 
  - 
  - 
  - 
  - 
  - 
  - 
  - 
  - 
  - 
  - 
  - 
  m_SortingLayers:
  - name: Default
    uniqueID: 0
    locked: 0
  - name: Main Layer
    uniqueID: 1921830251
    locked: 0
  - name: UI Layer
    uniqueID: 3880607209
    locked: 0
  - name: Panel Front Layer
    uniqueID: 669091401
    locked: 0
